<svg width="166" height="55" xmlns="http://www.w3.org/2000/svg">
    <path d="M46.548411 40.9281386c-.43804.032633-.710937-.1295929-.996014-.4578009-5.065099-5.8375487-10.144019-11.663359-15.220127-17.4915169-.572732-.6578247-1.145463-1.3156495-1.720068-1.9718308-.058093-.0666746-.127664-.1232541-.228624-.2192749-.020848.1145676-.033029.1734948-.041462.2328916-.003982.0277028-.000702.0561099-.000937.0842823-.010306 3.445715-.023424 6.8914299-.029749 10.3371449-.002342 1.3931234-.185757 2.7538486-.719135 4.0486036-.865538 2.1018931-2.423508 3.499712-4.477142 4.3941845-1.447874.6301219-2.971643.8897772-4.532658.984859-2.3359.1422704-4.600589-.1312363-6.713253-1.2137594-2.802987-1.4365558-4.356974-3.7551415-4.757066-6.8651358-.06067-.4732957-.075896-.9550431-.076364-1.4325647-.005154-5.099198-.003045-10.198396-.003045-15.297594v-.3960565h4.158099v.3732838c0 5.2494506-.002343 10.4989013.000937 15.7483519.001639 3.4208294 2.123673 6.3059143 5.358843 7.1968653 2.046138.5634473 4.077519.4568619 5.983343-.54537 2.480196-1.3043805 3.754025-3.4478279 3.894573-6.2009723.113375-2.2197475.040524-4.4495902.03865-6.6747375-.002577-3.2581339-.016163-6.5160331-.024361-9.7739323 0-.0359198.010306-.0718396.020847-.1418009.600607 0 1.198168.024416 1.79245-.0086865.394002-.0215988.647222.1204368.905829.4106122 5.185502 5.8180628 10.381076 11.6269697 15.575947 17.436346.074022.0824042.169126.145792.254157.2181011.025298-.0136167.050128-.0272333.075427-.0406152V15.6676226h1.836019v.3312601c0 8.1887673-.001639 16.3775346.00656 24.566302 0 .2911144-.085969.342529-.361676.3629539zM27.806396.00308353C19.602167-.11124931 12.658182 2.95507781 7.140286 9.003215 1.857338 14.793575-.449984 21.7244462.07215 29.5535464c.437805 6.5704997 2.99132 12.265778 7.542483 16.9832405C12.999244 52.1179671 19.657684 54.8581991 27.285902 55c7.466119-.125367 13.882349-2.6324727 19.17209-7.7605474 5.266082-5.1050672 8.075159-11.4163812 8.339622-18.7512911.282969-7.8523424-2.390948-14.6721676-7.863166-20.2779986C41.717089 2.86492625 35.272047.10685174 27.806396.00308353zM153.223292 30.6280873c-.205434.6364607-.71.9733552-1.401025.9733552-.691026 0-1.195357-.3368945-1.400791-.9733552-.130943-.4120208-.168188-.7864785-.168188-1.5539407 0-.7676969.037245-1.1419198.168188-1.5537059.205434-.6366954.709765-.9733552 1.400791-.9733552.691025 0 1.195591.3366598 1.401025.9733552.130709.4117861.167954.786009.167954 1.5537059 0 .7674622-.037245 1.1419199-.167954 1.5539407zm-1.401025-6.2904195c-1.905356 0-3.399845.8989332-3.922682 2.5460775-.205434.6552422-.298664 1.2919377-.298664 2.1904013 0 .8986985.09323 1.5351591.298664 2.1904014.522837 1.647379 2.017326 2.5460775 3.922682 2.5460775 1.905356 0 3.399611-.8986985 3.922682-2.5460775.205433-.6552423.298897-1.2917029.298897-2.1904014 0-.8984636-.093464-1.5351591-.298897-2.1904013-.523071-1.6471443-2.017326-2.5460775-3.922682-2.5460775zm-27.365778-3.4630879h-2.111024c-.111735 0-.186694.0746568-.186694.1868767v8.01269h-.09323l-4.483232-8.01269c-.074724-.1307667-.186694-.1868767-.317403-.1868767h-2.241733c-.11197 0-.186694.0746568-.186694.1868767v12.3559296c0 .1122199.074724.1873462.186694.1873462h2.110789c.112204 0 .186929-.0751263.186929-.1873462v-7.9939085h.09323l4.501737 7.9939085c.074725.1310015.168189.1873462.317872.1873462h2.222759c.11197 0 .186694-.0751263.186694-.1873462V21.0614566c0-.1122199-.074724-.1868767-.186694-.1868767zm-16.195293 3.668981h-1.158112c-.074958 0-.112203-.0373284-.112203-.11222v-2.4336227c0-.1124547-.074725-.1871115-.186694-.1871115h-2.222994c-.111735 0-.186694.0746568-.186694.1871115v2.4336227c0 .0748916-.037245.11222-.11197.11222h-.56055c-.111969 0-.186694.0751263-.186694.1873462v1.5537059c0 .1124547.074725.1873462.186694.1873462h.56055c.074725 0 .11197.0373284.11197.1124547v4.1183302c0 2.0781814.78449 3.0142082 2.876774 3.0142082h.989923c.112204 0 .186694-.0748915.186694-.1873462v-1.853272c0-.1124547-.07449-.1871115-.186694-.1871115h-.448347c-.597795 0-.821968-.2246746-.821968-.8986984v-4.0061103c0-.0751263.037245-.1124547.112203-.1124547h1.158112c.112204 0 .186694-.0748915.186694-.1873462v-1.5537059c0-.1122199-.07449-.1873462-.186694-.1873462zm23.853963 6.0469633c0 .8425884-.560316 1.2543745-1.681183 1.2543745-.859214 0-1.30756-.3183477-1.30756-.9548084 0-.7113522.504565-1.0296999 1.606458-1.0296999h1.270316c.074724 0 .111969.0375631.111969.1124547v.6176791zm-1.531734-6.2528564c-1.494254 0-2.596381.3559109-3.362131.8989332-.093464.05611-.112204.1495483-.056219.262003l.840474 1.4790492c.055985.0934383.149683.1122199.242913.0373284.429607-.3183478 1.102127-.5803508 2.01756-.5803508 1.438036 0 1.849137.3930045 1.849137 1.2353582v.3371293c0 .0746568-.037245.1122199-.111969.1122199h-1.606693c-2.241265 0-3.754259.9174801-3.754259 2.9205352 0 1.9283983 1.40079 2.7707521 3.007249 2.7707521 1.232836 0 2.017325-.3932393 2.484177-.9923716h.01874v.5991323c0 .1122199.074959.1873462.186928.1873462h2.073545c.111735 0 .186694-.0751263.186694-.1873462v-5.8035071c0-2.2650581-1.064648-3.2762113-4.016146-3.2762113zm14.925212.2058931h-2.241499c-.112204 0-.186928.0751263-.186928.1873462v8.6864791c0 .1122199.074724.1873462.186928.1873462h2.241499c.11197 0 .186694-.0751263.186694-.1873462v-8.6864791c0-.1122199-.074724-.1873462-.186694-.1873462zm-4.557723 0h-1.158111c-.074959 0-.112204-.0373284-.112204-.11222v-2.4336227c0-.1124547-.074724-.1871115-.186694-.1871115h-2.222994c-.111969 0-.186694.0746568-.186694.1871115v2.4336227c0 .0748916-.037245.11222-.111969.11222h-.560551c-.112203 0-.186694.0751263-.186694.1873462v1.5537059c0 .1124547.074491.1873462.186694.1873462h.560551c.074724 0 .111969.0373284.111969.1124547v4.1183302c0 2.0781814.78449 3.0142082 2.87654 3.0142082h.990157c.11197 0 .186694-.0748915.186694-.1873462v-1.853272c0-.1124547-.074724-.1871115-.186694-.1871115h-.448346c-.597796 0-.821969-.2246746-.821969-.8986984v-4.0061103c0-.0751263.037245-.1124547.112204-.1124547h1.158111c.11197 0 .186694-.0748915.186694-.1873462v-1.5537059c0-.1122199-.074724-.1873462-.186694-.1873462zm-38.536261-3.668981h-1.027403c-2.148269 0-3.175437.9172452-3.175437 3.1261934v.4305676c0 .0748916-.037245.11222-.112204.11222h-.560082c-.112204 0-.186928.0751263-.186928.1873462v1.5537059c0 .1124547.074724.1873462.186928.1873462h.560082c.074959 0 .112204.0373284.112204.1124547v6.8329723c0 .1122199.074724.1873462.186928.1873462h2.222759c.11197 0 .186694-.0751263.186694-.1873462v-6.8329723c0-.0751263.03748-.1124547.11197-.1124547h1.475749c.112204 0 .186928-.0748915.186928-.1873462v-1.5537059c0-.1122199-.074724-.1873462-.186928-.1873462h-1.475749c-.07449 0-.11197-.0373284-.11197-.11222v-.4491144c0-.7676969.205668-.97359 1.027169-.97359h.57929c.112203 0 .186694-.0748915.186694-.1871114v-1.7600685c0-.1122199-.074491-.1868767-.186694-.1868767zm-7.079614 3.668981H93.09354c-.11197 0-.186928.0751263-.186928.1873462v8.6864791c0 .1122199.074958.1873462.186928.1873462h2.241499c.112204 0 .186694-.0751263.186694-.1873462v-8.6864791c0-.1122199-.07449-.1873462-.186694-.1873462zm-20.92097-3.668981h-2.372208c-.11197 0-.186929.0746568-.186929.1868767v7.9377985c0 1.5163775-.840474 2.3775128-2.11079 2.3775128-1.28882 0-2.129295-.8611353-2.129295-2.3775128v-7.9377985c0-.1122199-.074724-.1868767-.186694-.1868767h-2.372442c-.112204 0-.186694.0746568-.186694.1868767v7.862907c0 3.1639913 2.017325 4.8862619 4.875125 4.8862619 2.839529 0 4.856855-1.7222706 4.856855-4.8862619v-7.862907c0-.1122199-.074724-.1868767-.186928-.1868767zm88.503958 3.4630879c-1.158112 0-1.924096.4683656-2.334963 1.0297h-.01874v-.6364607c0-.1122199-.07449-.1873462-.186694-.1873462h-2.241499c-.11197 0-.186928.0751263-.186928.1873462v8.6864791c0 .1122199.074958.1873462.186928.1873462h2.241499c.112204 0 .186694-.0751263.186694-.1873462v-5.2043748c0-.9923716.523305-1.6473791 1.419764-1.6473791.933939 0 1.400791.6550075 1.400791 1.6473791v5.2043748c0 .1122199.074958.1873462.186928.1873462h2.241733c.11197 0 .18646-.0751263.18646-.1873462v-5.709834c0-1.9842736-1.083387-3.3698844-3.081973-3.3698844zm-80.415681 6.2904195c-.205434.6364607-.691026.9733552-1.400791.9733552-.69126 0-1.177086-.3368945-1.382519-.9733552-.11197-.3559109-.167955-.7489153-.167955-1.5539407 0-.8050253.055985-1.1982645.167955-1.5537059.205433-.6552422.691259-.9733552 1.382519-.9733552.709765 0 1.195357.318113 1.400791.9733552.112203.3554414.168188.7486806.168188 1.5537059 0 .8050254-.055985 1.1980298-.168188 1.5539407zm-.560317-6.2904195c-1.195591 0-1.961341.4305677-2.372208 1.0484815h-.01874v-.6552422c0-.1122199-.074724-.1873462-.186694-.1873462h-2.241733c-.111969 0-.186694.0751263-.186694.1873462v12.0563634c0 .1124547.074725.1871115.186694.1871115h2.241733c.11197 0 .186694-.0746568.186694-.1871115v-4.0251266h.01874c.410867.6179139 1.176617 1.0484816 2.372208 1.0484816 1.512995 0 2.596382-.7489154 3.063468-2.1716198.224174-.711587.317403-1.4041576.317403-2.5648591 0-1.179483-.093229-1.8535068-.317403-2.564859-.467086-1.4412512-1.550473-2.1716198-3.063468-2.1716198zm13.39301-3.4630879H93.09354c-.11197 0-.186928.0746568-.186928.1868767v1.8535068c0 .1122199.074958.1873462.186928.1873462h2.241499c.112204 0 .186694-.0751263.186694-.1873462v-1.8535068c0-.1122199-.07449-.1868767-.186694-.1868767zm50.173598 0h-2.241499c-.112204 0-.186928.0746568-.186928.1868767v1.8535068c0 .1122199.074724.1873462.186928.1873462h2.241499c.11197 0 .186694-.0751263.186694-.1873462v-1.8535068c0-.1122199-.074724-.1868767-.186694-.1868767zM90.98275 31.4892226h-.392128c-.54181 0-.784489-.2434562-.784489-.8611353v-9.5666307c0-.1122199-.074725-.1868767-.186928-.1868767H87.37794c-.112204 0-.186928.0746568-.186928.1868767v9.7725238c0 2.0030551.803229 2.8829719 2.801815 2.8829719h.989923c.112204 0 .186928-.0748915.186928-.1873462v-1.853272c0-.1124547-.074724-.1871115-.186928-.1871115z" fill="#FFF" fill-rule="evenodd"/>
</svg>
